19/02/2016 04:51:45,40.77.167.4,;,Faild Login,action=login,"",
19/02/2016 08:15:53,40.77.167.4,;,Faild Login,action=login,"",
19/02/2016 17:30:06,40.77.167.4,;,Faild Login,action=login,"",
19/02/2016 20:12:37,40.77.167.4,;,Faild Login,action=login,"",
