22/10/2016 02:17:38,207.46.13.18,;,Faild Login,action=login,"",
22/10/2016 10:26:21,176.13.227.163,;,Faild Login,action=login,"",
22/10/2016 15:09:08,176.13.15.49,;,Faild Login,action=login,"",
22/10/2016 16:07:13,207.46.13.18,;,Faild Login,action=login,"",
22/10/2016 16:10:52,176.13.15.49,;,Faild Login,action=login,"",
22/10/2016 19:51:28,46.19.85.32,7850;7850,Faild Login,action=login,"",
22/10/2016 23:05:00,176.13.244.159,;,Faild Login,action=login,"",
